@startuml ../03.Pointing終了シーケンス(共有ユーザ変更).png
title Pointing終了シーケンス(共有ユーザ変更)
hide footbox
participant LibVidyo
participant UI
participant Lib
participant Conference
participant Lib2
participant UI2

activate UI
Lib <- UI : シェアリング開始要求(ポイント許可有無)
deactivate UI

activate Lib
Lib -> Lib : [追加]共有画面がDesktop指定の場合\n1)DesktopID\n2)Width\n3)Height\nを取得\n・ポイント許可可否情報退避
LibVidyo <- Lib : シェアリング開始要求
deactivate Lib

activate LibVidyo
LibVidyo ->> Lib : OUT_EVENT_ADD_SHARE
deactivate LibVidyo

activate Lib
Lib -> Lib : 自身のシェアリングかチェック\n※自身のシェアリングの場合、URI取得
Lib ->> Conference : event : StartDesktopSharing\n・共有画面のURI\n・ポイント許可情報設定\n※Desktop共有の場合送信
activate Conference
Conference ->> Lib2 : event : StartDesktopSharing\n・共有画面のURI\n・ポイント許可情報設定
activate Lib2
Lib2 -> Lib2 : デスクトップ画面のURI取得

activate UI2
UI2 -> Lib2 : ポインタ開始要求
Lib2 -> Lib2 : 共有表示画面がDesktop画面の場合かつポイント許可
Conference <<- Lib2 : event : RequestRemotePointing dest:PID
Conference ->> Lib2 : ACK : RequestRemotePointing
Conference -->> Lib2 : NACK : RequestRemotePointing\n※Pointer要求がNGの場合

Conference -> Conference : SharerとSenderのBinding
Lib <<- Conference : event : RequestRemotePointing from:PID
Conference <<- Lib2 : RemotePointing : width,height,x,y\n※RequestRemotePointingの応答がACKのときのみ送信
Lib <<- Conference : RemotePointing : width,height,x,y

UI <<- Lib : 座標を受信
activate UI
UI -> UI : 画面上にアイコンをレンダリング

==誰かがシェアリング開始==

Lib2 ->> Lib2 : OUT_EVENT_ADD_SHARE
activate Lib2
Lib2 ->> Lib2 : OUT_EVENT通知がきたURIをStartDesktopSharingで通知がきたURIと比較\n※不一致ならPoint送信終了
Conference <<- Lib2 : ReleaseRemotePointing : dest PID
Conference -> Conference : DesktopSharingのOwnerとSenderのBindを解除
Lib <<- Conference : ReleaseRemotePointing : from PID

==誰かがシェアリング終了==

Lib2 ->> Lib2 : OUT_EVENT_REMOVE_SHARE
activate Lib2
Lib2 ->> Lib2 : OUT_EVENT通知がきたURIをStartDesktopSharingで通知がきたURIと比較\n※一致ならPoint送信終了
Conference <<- Lib2 : ReleaseRemotePointing : dest PID
Conference -> Conference : DesktopSharingのOwnerとSenderのBindを解除
Lib <<- Conference : ReleaseRemotePointing : from PID

@enduml
