@startuml ./003.オフラインページ作成.png
title ページ新規作成(資料アップロード)
hide footbox
participant App
participant DocServer
create DocServer
App -> DocServer : 認証(ユーザtoken)
DocServer -> Portal:ユーザ認証（ユーザtoken)
Portal --> DocServer:return 認証結果
DocServer --> App:処理ID
App ->> DocServer:接続(処理ID)
App ->> DocServer:新規作成 ("offline",処理ID,ユーザtoken,ファイルバイナリ) 
note left #FFAAAA
  ユーザを特定する情報とファイル
  バイナリをアップロード
end note

DocServer -> DocServer:変換開始
DocServer -> Portal:資料の新規保存(ユーザtoken,ファイルバイナリ)
Portal -> Portal:保存
Portal --> DocServer:return 資料ID
DocServer ->> App:変換完了の通知 (資料ID)
App -> DocServer:Close
destroy DocServer
App -> Portal:資料のダウンロード(ユーザtoken,資料ID)
Portal --> App:ファイルバイナリ
== 画像・資料をページとして追加（この機能は未来に追加予定） ==
group 現在編集中の場合
	App -> Portal:資料を保存(documentID,delta)
	note left #FFAAAA
	編集中の状態であれば
	先に保存を行う
	end note
	alt 保存ができない場合
		App <-- Portal:return error
		note left #FFAAAA
		リビジョンに不一致があり
		保存できない場合ここでエラー
		end note
	else
		Portal -> Portal:資料をバージョンアップ
		App <-- Portal:return revision
	end

end
App -> DocServer : 認証(ユーザtoken)
DocServer -> Portal:ユーザ認証（ユーザtoken)
Portal --> DocServer:return 認証結果
DocServer --> App:処理ID
App ->> DocServer:接続（処理ID)
App ->> DocServer:ページ追加（ファイル,資料ID,パージョン,ユーザtoken）
DocServer -> DocServer:資料を変換
DocServer -> Portal:ページ追加（ユーザTOKEN,資料ID,ファイルバイナリ)
Portal -> Portal:資料をバージョンアップ
Portal --> DocServer:( 新しいぺージIDの配列,資料ID,バージョン )
DocServer ->> App:アップロード成功( 新しいぺージIDの配列,資料ID,バージョン )
App -> Portal:画像取得（ぺージIDの配列,資料ID,バージョン）
Portal --> App:ファイルバイナリ
@enduml