
@startuml
	
	title 入室シーケンス（パスワード付）
	hide footbox
	
	actor ユーザー
	participant "app:IConferenceEventSink"
	participant libv5lite
	participant httpd
	participant swf
	participant VCubePortal
	participant ConferenceServer

	VCubePortal								->		swf											: flashVars(token,VLiteURL)
	swf										->>		httpd										: joinConference(token,V5LiteURL)
	activate httpd
	httpd									->		libv5lite									: onReceiveJoinConferenceRequest(token,V5LiteURL)
	activate libv5lite
	libv5lite								->		"app:IConferenceEventSink"					: onReceiveJoinConferenceRequest(token,V5LiteURL)
	activate "app:IConferenceEventSink"
	libv5lite								<-		"app:IConferenceEventSink"					: joinConference(token,V5LiteURL)
	activate libv5lite
	libv5lite								->>		VCubePortal									: prepareJoinConference(token)
	deactivate libv5lite
	deactivate "app:IConferenceEventSink"
	deactivate libv5lite
	deactivate httpd
	activate VCubePortal
	loop パスワードもしくは表示名が必要
		libv5lite								<<--	VCubePortal									: need DISPALY_NAME or ROOM_PASSWORD
		deactivate VCubePortal
		activate libv5lite
		libv5lite								->		"app:IConferenceEventSink"					: onJoinConferenceFailed(reason, token, V5LiteURL)
		activate "app:IConferenceEventSink"
		"app:IConferenceEventSink"				->		ユーザー										: Prompt 
		activate ユーザー
		"app:IConferenceEventSink"				<--		ユーザー										: DispalyName&passwd
		deactivate ユーザー
		libv5lite								<-		"app:IConferenceEventSink"					: joinConference(token, V5LiteURL, displayName, roomPasswd)
		deactivate "app:IConferenceEventSink"
		activate libv5lite
		libv5lite								->		VCubePortal									: prepareJoinConference(token, displayName, roomPasswd)
		deactivate libv5lite
		deactivate libv5lite
		activate VCubePortal
	end
	libv5lite								<--		VCubePortal									: OK
	deactivate VCubePortal
	activate libv5lite
	libv5lite								->>		VCubePortal									: NoticeJoinedConference(PID, token)
	libv5lite								->>		ConferenceServer							: Subscribe
	deactivate libv5lite
	activate ConferenceServer
	libv5lite								<<--	ConferenceServer							: Established
	deactivate ConferenceServer
	activate libv5lite
	libv5lite								->		"app:IConferenceEventSink"					: onJoinedConference()
	activate "app:IConferenceEventSink"
	"app:IConferenceEventSink"				-->		ユーザー										: 入室状況を通知
	deactivate "app:IConferenceEventSink"
	deactivate libv5lite

@enduml




