@startuml ../01.録画要求メッセージシーケンス.png
title 録画要求メッセージシーケンス
hide footbox
participant Lib2
participant Lib
participant Conference
Lib ->> Conference : RequestStartRecord
Conference -> Conference : 録画状態に対するユニークなID(RecID)を生成
Lib <<- Conference : ACK(RecID)
Conference -> Portal : action_startRecord(confID,RecID)
Conference <-- Portal : HTTP/200
Conference <- Portal : noticeRecordStatus( confID,RecID,result )
Lib <- Conference : noticeRecordStatus( result,RecID )
Lib <- Conference : updateConferenceStatus( status )
Lib2 <- Conference : updateConferenceStatus( status )
==同時に多地点から録画開始==
Lib ->> Conference : RequestStartRecord
Conference -> Conference : 録画状態に対するユニークなID(RecID)を生成
Lib <<- Conference : ACK( RecID )
Conference -> Portal : action_startRecord( uniqueRecordID )
Lib2 ->> Conference : RequestStartRecord
Conference <-- Portal : HTTP/200
Conference -> Conference : すでにユニークなIDがあるのでそれを通知
Lib2 <<- Conference : ACK( RecID )
Conference <- Portal : noticeRecordStatus( confID,RecID,result )
Lib <- Conference : noticeRecordStatus( result,RecID )
Lib2 <- Conference : noticeRecordStatus( result,RecID )
Lib <- Conference : updateConferenceStatus( status )
Lib2 <- Conference : updateConferenceStatus( status )

@enduml
