@startuml ../06.録画向け拡張入室シーケンス.png
title 録画向け拡張入室シーケンス
hide footbox
Lib -> V5_Lite_Portal : generateAnthToken( volatileToken )
Lib <-- V5_Lite_Portal : token
Lib -> V5_Lite_Portal : action_PrepareJoinConference( token )
V5_Lite_Portal -> V5_Lite_Portal : 会議に利用するVidyoのRoomとUserを内部的に決定
V5_Lite_Portal -> Vidyo_Portal : UpdateRoom( Room )
note left #FFAAAA 
	選択したVidyoの部屋のnameをユニークなものに更新
	検索を想定して、room_id+meeting_keyのようなものが良い
end note
V5_Lite_Portal -> Vidyo_Portal : UpdateMember( member )
note left #FFAAAA 
	選択したVidyoメンバーの、displayNameと
	groupNameとlocationTagを更新
end note
V5_Lite_Portal -> ConferenceServer : NumTotalParticipants()
note left #FFAAAA 
	Conferenceサーバ上の人数を確認して、
	少ない方を選択
end note
V5_Lite_Portal <-- ConferenceServer : Num of participants
V5_Lite_Portal -> ConferenceServer : PrepareConference( conferenceInfoObject )
note right #FFAAAA 
	会議生成のAPIを追加。
	上限人数や、会議名などを通知
	一定時間アクセスがない場合は破棄
end note
V5_Lite_Portal <-- ConferenceServer : Http status
V5_Lite_Portal -> ConferenceServer : PrepareParticipant( token )
V5_Lite_Portal <-- ConferenceServer : Http status
V5_Lite_Portal --> Lib : conferenceAddress,portalAddress,un,pw,conferenceID,locationTag,conferenceID,lang,displayName
note left #FFAAAA 
	ConferenceServerのアドレス
	Portalのアドレス
	Vidyoのアカウント
	Location_Tag
	conferenceID
	表示用の名前
end note
@enduml