@startuml ../003-1-1.入室仕様問題点1.png
title 入室仕様の問題点
hide footbox
participant client0
client1 ->> Conference : 入室
note right #FFAAAA 
	この前に５人参加していたとすると
	client1の参加により６人となる
end note
client1 <<- Conference : Established
Conference -> V5Portal : action_NoticeJoinedConference( Client-PID,token )
activate V5Portal
V5Portal -> V5Portal : DBの更新
note right #FFAAAA
	DB上参加者は６人
end note
client0 ->> Conference : 退出
client0 <<- Conference : CloseFromServer
Conference -> V5Portal : RemoveParticipant( token )
activate V5Portal
V5Portal -> V5Portal : DBの更新
note right #FFAAAA
	DB上参加者は５人
end note
Conference <-- V5Portal : Clinet0のRemoveに対するParticipantList（人数は５人）
deactivate V5Portal
V5Portal -> V5Portal : なにか重たい処理
Conference <-- V5Portal : Clinet1のJoinに対するParticipantList（人数は6人）
deactivate V5Portal
@enduml