@startuml ../003-3.ログイン-入室シーケンスWebPortal.png
title ログイン-入室シーケンス Web Portal
participant Lib
participant swf
actor User
participant Browser
participant V5_Web_Portal
participant Account_DB
participant Data_DB
User -> Browser : ログイン
Browser -> V5_Web_Portal : ログイン実行
V5_Web_Portal -> Account_DB : userテーブルチェック
V5_Web_Portal <--- Account_DB : OK
V5_Web_Portal -> Data_DB : user、memberテーブルチェック
V5_Web_Portal <--- Data_DB : OK
Browser <--- V5_Web_Portal : 認証OK、メインページに遷移
Browser -> V5_Web_Portal : 入室ボタン押下
create swf
Browser -> swf  : flashVars?session=SESSION&roomID=ROOM_ID&lang=ja-jp
note right #FFAAAA
SWF生成時にFlashvarsで
sessionとroomIDと
表示言語を渡してあげる
end note
swf --> Browser : adapterReady()
note right #FFAAAA
  swfに対して関数呼び出しが可能になる
    checkClientAlive()
    joinConference(volatileToken)
end note

Browser -> swf : checkClientAlive()
swf -> Lib
note left #FFAAAA : http://localhost:21920/api/alive
swf <-- Lib : status 200/OK message="idle"
note left #FFAAAA : 会議入室可能な場合はidle,会議中の場合はbusyを返す
swf --> Browser : noticeNativeConnected()

Browser -> V5_Web_Portal : action_start( session, RoomID )
Browser <-- V5_Web_Portal : volatileToken
Browser -> swf : joinConference ( volatileToken )
swf -> Lib :
note left #FFAAAA
 http://localhost:21920/api/joinConference/?token=TOKEN&lang=ja-jp&portal=https://FQDN:port
 volatileTokenと、アプリの表示言語、ポータルのアドレスを通知
end note
Lib --> swf
swf --> Browser : noitceClientHasJoinedConference()
Browser -> Browser :
note right #FFAAAA
  会議から抜けたかどうかを5000[msec]毎にチェックする
  会議から抜けたらメインページへ
end note
Lib -> V5_Web_Portal : action_GenerateAuthToken( volatileToken )
V5_Web_Portal -> Data_DB : Token check
V5_Web_Portal <-- Data_DB : Token 
Lib <-- V5_Web_Portal : token
Lib -> V5_Web_Portal : action_StartConferenceSession( token, type ,version )
Lib <-- V5_Web_Portal : Permission etc...
Lib -> V5_Web_Portal : action_PrepareJoinConference( token )
Lib <-- V5_Web_Portal : Conference info etc...
Lib -> V5_Web_Portal : action_JoinConference( token )
Lib <-- V5_Web_Portal : result
@enduml
