@startuml{015.入室シーケンス満室.png}
title 入室 シーケンス 満室
hide footbox
participant Vidyo_API
[-> Lib : JoinConference( volatileToken,V5LiteURL )
[-> Lib : HTTP REQUEST( volatileToken,V5LiteURL )
Lib -> V5_Lite_Portal : generateAnthToken( volatileToken )
Lib <-- V5_Lite_Portal : token
Lib -> V5_Lite_Portal : action_PrepareJoinConference( token )
alt すでに部屋が満室
V5_Lite_Portal -> V5_Lite_Portal : tokenを破棄
end
V5_Lite_Portal --> Lib : Message Room is FULL
@enduml