@startuml{016.入室シーケンス満室２.png}
title 入室 シーケンス 満室で失敗
hide footbox
participant otherClient
participant Vidyo_API
participant Lib
participant ConferenceServer
[-> Lib : JoinConference( volatileToken,V5LiteURL )
[-> Lib : HTTP REQUEST( volatileToken,V5LiteURL )
Lib -> V5_Lite_Portal : generateAnthToken( volatileToken )
Lib <-- V5_Lite_Portal : token
Lib -> V5_Lite_Portal : action_PrepareJoinConference( token )
V5_Lite_Portal -> V5_Lite_Portal : SelectRoom / User
V5_Lite_Portal -> ConferenceServer : PrepareConference( ConferenceInfoObject )
V5_Lite_Portal <-- ConferenceServer : Http status
V5_Lite_Portal -> ConferenceServer : PrepareParticipant( token )
V5_Lite_Portal <-- ConferenceServer : Http status
V5_Lite_Portal --> Lib : conferenceAddress,portalAddress,un,pw,conferenceID
Lib ->> Vidyo_API : VIDYO_CLIENT IN_EVENT_LOGIN
Lib -> Vidyo_Manager : TCP Connection
Lib <<- Vidyo_API : VIDYO_CLIENT OUT_EVENT_SIGNIN
Vidyo_API ->> Lib : VIDYO_CLIENT OUT_EVENT_SIGINED_IN
Lib -> V5_Lite_Portal : action_JoinConference( token )
V5_Lite_Portal -> Vidyo_Portal : joinConference( un,pw,Eid of room )
Lib <<- Vidyo_Manager : <Join>
Vidyo_API ->> Lib : VIDYO_CLIENT OUT_EVENT_CONFERENCE_ACTIVE
Vidyo_API <- Lib : VIDYO_CLIENT REQUEST_GET_PID
Vidyo_API --> Lib : Client-PID
Lib -> ConferenceServer : TCP::Connect wss://fqdn/connect/conferenceID/Client-PID/TOKEN
alt すでに部屋が満室
ConferenceServer -> ConferenceServer : tokenを破棄
end
Lib <-- ConferenceServer : CloseFromServer( RESON_CLOSE )
ConferenceServer -> Lib : TCP/Close
destroy Lib
'---ConferenceServerからの終了通知---'
ConferenceServer -> V5_Lite_Portal : action_PrepareJoinConference( "remove" )
note left #FFAAAA 
	リスト自体の更新がないので、
	既存ユーザへの通知はしない
	履歴としてrevisonを更新し、Portalへ通知
end note
V5_Lite_Portal -> V5_Lite_Portal : updateList( particilantList )
ConferenceServer <-- V5_Lite_Portal : http 200
note right #FFAAAA 
	このエラーを返すと同時に
	別スレッドでVidyo側に
	LOGOUT処理を通知
end note

'---ConferenceServerからの終了通知---'
@enduml